INIT
81 31
L L L L L L L L L L L L L L L L L L L L L L L L L L L L L L L L L L L L L L L L L L L L L L L L L L L L L L L L L L L L L L L L L L L L L L L L L L L L L L L L L
 L R R R R R R R R R R R R R R R R R R R R R R R R R R R R R R R R R R R R R R R R R R R R R R R R R R R W W W W W W W G G G R R G G G G G G G G G G G W W W W W L
L R G G G G G G G G G R G G G G G G G G G G G G G G G G G G G G G G G G R G G G G G G G G G G G G R R R G W W W W W W G G G R R G G G G G G G G G G G G W W W W L
 L R G G G G G G G G G R G G G G G G G G G G G G G G G G G G G G G G G G R G G G G G G G G G G G G R R R G W W W W W W G G G R R G G G G G G G G G G G W W W W W L
L R R R R R R R R R R R R R R R R R R R R R R R R R R R R R R R R R R R R R R R R R R R R R R R R R R R G W W W W W W G G G R R G G G G G G G G G G G G W W W W L
 L R G G G G G G G G G R G G G G G G G R G G G G G G G G G G G G G G G G R G G G G G G G G G G G G R R R G G G G W W W G G G R R G G G G G G G G G G G W W W W W L
L R G G G G G G G G G G R G G G G G G G R G G G G G G G G G G G G G G G G R G G G G G G G G G G G R R R G G G G G W W R R R R R G G G G G G G G G G G G W W W W L
 L R G G G G G G G G G R G G G G G G G R G G G G G G G G G G G G G G G G R G G G G G G G G G G G G R R R G G G G W W W R R R R R G G G G G G G G G G G W W W W W L
L R G W W W W W W W W W W W W W W W W W W W W W W W W W W W W W W W W G G R G G G G G G G G G G G R R R G G G G G W W G G G R R G G G G G G G G G G G G G G G G L
 L R G W W W W W W W W W W W W W W W W W W W W W W W W W W W W W W W W G R W W W W W W W W W W W R R R R R G G G G G G G G G R R G G G G G G G G G G G R R R R R L
L R G W W W W W W W W W W W W W W W W W W W W W W W W W W W W W W W W G G R 5 A A A a A A A A W R R R R R G G G G G G G G G R R G G G G G G G G G G G R R R R R L
 L R G W W W W W W W W W W W W W W W W W W W W W W W W W W W W W W W W G R W A A A A A A A A A W R R R R R G G G G G G G G G R R G G G G G G G G G G G R R R R R L
L R G W W W W W W W W W W W W W W W W W W W W W W W W W W W W W W W W G G R W W W W W W W 4 W W R R R R R G G G G G G G G G R R G G G G G G G G G G G R R R R R L
 L R G G G G G G G G G G G G G G G G G G G G G G G G G G G G G G G G G G R G G G G G G G G G G G G G R R R G G G G G G G G G R R G G G G G G G G G G G R R R R R L
L R R R R R R R R R R R R R R R R R R R R R R R R R R R R R R R R R R R R R R R R R R R R R R R R R R R R R R R R R R R R R R R R R R R R R R R R R R R R R R R L
 L R R R R R R R R R R R R R R R R R R R R R R R R R R R R R R R R R R R R R R R R R R R R R R R R R R R R R R R R R R R R R R R R R R R R R R R R R R R R R R R L
L S S G G G G G G G G G G G G G G G G R R G G G G G G G G G G G G G G G R R G G G G G G G G G G G G R R R R R G G G G G G G G R G G G G G G S S S S S S S S G G L
 L S S W W W W W G G G G G G W W W W R R W W W G G G G W W 0 W G G G G R R G G G G G G G G G G G G G G R R G G W W G G G G G G R G G G G G S S S S S S S S G G G L
L S S S W e E E W G G G G G G W W W W R R W W W G G G G W I I W G G G G R R G W W W W W W W W W W W G G R R G W W W G G W W W W G G G G G G S S W 6 W W W W G G L
 L S S W E E E W G G W W G G W W W W R R W W W G G G G W I I W G G G G R R G G W M M M M M M M M m W G R R G G W W W G G W W W W G G G G G G S S W C C C C W G G L
L S S S W E E E W G G W W G G W W W W R R W W W G G G G W I I W G G G G R R G W M M W W W M M M M W G G R R G G G G G G G G G G G G G G G G G G W W W C c W G G L
 L S S W E E E W G G G G G G W W W W R R W W W G G G G W I I W G G G G R R G G W M M W G W M M M M W G R R R G G G G G G G S S S G G G G G G G G G G W C C W G G L
L S S S W E E E 8 G G G G G G W W W W R R G G G G G G G W I I 1 R R R R R R G W M M W G W M M M M W G G R R R G G G G G G G S G S G G G G G G G G G W C C W G G L
 L S S W E E E W G G G G G G W W W W R R W W W G G G G W I I W G G G G R R G G W M M W G W M M M M W G R R R R G G G G G G G G G S G G G G G G G G G W C C W G G L
L S S S W E E E W G G G G G G W W W W R R W W W G G G G W I I W G G G G R R G W M M W G W M M M M W G G R R R G G G G G G G G S S S G G G G G G W W W C C W G G L
 L S S W E E E W G W W G G G W W W W R R W W W G G G G W I I W G G G G R R G G W M M W G W M M M M W G R R R G G G G G G G G S S S S G G G G G G W C C C C W G G L
L S S S W E E E W G W W G G G W W W W R R W W W G G G G W i I W G G G G R R G W W 3 W G G W 2 W W W G G R R G G G G G G G G S S S S S G G G G G W W W 7 W W G G L
 L S S W 9 W W W G W W G G G W W W W R R G G G G G G G W W W W G G G G R R G G G G G G G G G G G G G G R R G G G G G G G G G S S S S G G G G G G G G G G G G G G L
L S S S S S S S S S S S S S S S S S S R R R R R R R R R R R R R R R R R R R R R R R R R R R R R R R R R R R G G G G G G G G G S S S G G G G G G G G G G G G G G L
 L S S S S S S S S S S S S S S S S S R R R R R R R R R R R R R R R R R R R G G G G G G G G G G G G G G R R G G G G G G G G G G G G G G G G G G G G G G G G G G G L
L L L L L L L L L L L L L L L L L L L L L L L L L L L L L L L L L L L L L L L L L L L L L L L L L L L L L L L L L L L L L L L L L L L L L L L L L L L L L L L L L
1 0